<svg width="20" height="16" viewBox="0 0 20 16" fill="none" xmlns="http://www.w3.org/2000/svg">
<path d="M18 0H2C0.895 0 0.00999999 0.895 0.00999999 2L0 14C0 15.105 0.895 16 2 16H18C19.105 16 20 15.105 20 14V2C20 0.895 19.105 0 18 0ZM18 4L10 9L2 4V2L10 7L18 2V4Z" fill="#333333"/>
</svg>
